{"data_types" : [
"\\bATOM\\b",
"\\bBOOL\\b",
"\\bBOOLEAN\\b",
"\\bBYTE\\b",
"\\bCHAR\\b",
"\\bCOLORREF\\b",
"\\bDWORD\\b",
"\\bDWORDLONG\\b",
"\\bDWORD_PTR\\b",
"\\bDWORD32\\b",
"\\bDWORD64\\b",
"\\bFLOAT\\b",
"\\bHACCEL\\b",
"\\bHALF_PTR\\b",
"\\bHANDLE\\b",
"\\bBITMAP\\b",
"\\bHBRUSH\\b",
"\\bHCOLORSPACE\\b",
"\\bHCONV\\b",
"\\bHCONVLIST\\b",
"\\bHCURSOR\\b",
"\\bHDC\\b",
"\\bHDDEDATA\\b",
"\\bHDESK\\b",
"\\bHDROP\\b",
"\\bHDWP\\b",
"\\bHENHMETAFILE\\b",
"\\bHFILE\\b",
"\\bHFONT\\b",
"\\bHGDIOBJ\\b",
"\\bHGLOBAL\\b",
"\\bHHOOK\\b",
"\\bHICON\\b",
"\\bHINSTANCE\\b",
"\\bHKEY\\b",
"\\bHKL\\b",
"\\bHLOCAL\\b",
"\\bHMENU\\b",
"\\bHMETAFILE\\b",
"\\bHMODULE\\b",
"\\bHMONITOR\\b",
"\\bHPALETTE\\b",
"\\bHPEN\\b",
"\\bHRESULT\\b",
"\\bHRGN\\b",
"\\bHRSRC\\b",
"\\bHSZ\\b",
"\\bHWINSTA\\b",
"\\bHWND\\b",
"\\bINT\\b",
"\\bINT_PTR\\b",
"\\bINT32\\b",
"\\bINT64\\b",
"\\bLANGID\\b",
"\\bLCID\\b",
"\\bLCTYPE\\b",
"\\bLGRPID\\b",
"\\bLONG\\b",
"\\bLONGLONG\\b",
"\\bLONG_PTR\\b",
"\\bLONG32\\b",
"\\bLONG64\\b",
"\\bLPARAM\\b",
"\\bLPBOOL\\b",
"\\bLPBYTE\\b",
"\\bLPCOLORREF\\b",
"\\bLPCSTR\\b",
"\\bLPCTSTR\\b",
"\\bLPCVOID\\b",
"\\bLPCWSTR\\b",
"\\bLPDWORD\\b",
"\\bLPHANDLE\\b",
"\\bLPINT\\b",
"\\bLPLONG\\b",
"\\bLPSTR\\b",
"\\bLPTSTR\\b",
"\\bLPVOID\\b",
"\\bLPWORD\\b",
"\\bLPWSTR\\b",
"\\bLRESULT\\b",
"\\bPBOOL\\b",
"\\bPBOOLEAN\\b",
"\\bPBYTE\\b",
"\\bPCHAR\\b",
"\\bPCSTR\\b",
"\\bPCTSTR\\b",
"\\bPCWSTR\\b",
"\\bPDWORDLONG\\b",
"\\bPDWORD_PTR\\b",
"\\bPDWORD32\\b",
"\\bPDWORD64\\b",
"\\bPFLOAT\\b",
"\\bPHALF_PTR\\b",
"\\bPHANDLE\\b",
"\\bPHKEY\\b",
"\\bPINT\\b",
"\\bPINT_PTR\\b",
"\\bPINT32\\b",
"\\bPINT64\\b",
"\\bPLCID\\b",
"\\bPLONG\\b",
"\\bPLONGLONG\\b",
"\\bPLONG_PTR\\b",
"\\bPLONG32\\b",
"\\bPLONG64\\b",
"\\bPOINTER_32\\b",
"\\bPOINTER_64\\b",
"\\bPSHORT\\b",
"\\bPSIZE_T\\b",
"\\bPSSIZE_T\\b",
"\\bPSTR\\b",
"\\bPTBYTE\\b",
"\\bPTCHAR\\b",
"\\bPTSTR\\b",
"\\bPUCHAR\\b",
"\\bPUHALF_PTR\\b",
"\\bPUINT\\b",
"\\bPUINT_PTR\\b",
"\\bPUINT32\\b",
"\\bPUINT64\\b",
"\\bPULONG\\b",
"\\bPULONGLONG\\b",
"\\bPULONG_PTR\\b",
"\\bPULONG32\\b",
"\\bPULONG64\\b",
"\\bPUSHORT\\b",
"\\bPVOID\\b",
"\\bPWCHAR\\b",
"\\bPWORD\\b",
"\\bPWSTR\\b",
"\\bSC_HANDLE\\b",
"\\bSC_LOCK\\b",
"\\bSERVICE_STATUS_HANDLE\\b",
"\\bSHORT\\b",
"\\bSIZE_T\\b",
"\\bSSIZE_T\\b",
"\\bTBYTE\\b",
"\\bTCHAR\\b",
"\\bUCHAR\\b",
"\\bUHALF_PTR\\b",
"\\bUINT\\b",
"\\bUINT_PTR\\b",
"\\bUINT32\\b",
"\\bUINT64\\b",
"\\bULONG\\b",
"\\bULONGLONG\\b",
"\\bULONG_PTR\\b",
"\\bULONG32\\b",
"\\bULONG64\\b",
"\\bUSHORT\\b",
"\\bUSN\\b",
"\\bVOID\\b",
"\\bWCHAR\\b",
"\\bWORD\\b",
"\\bWPARAM\\b",
"\\bWPARAM\\b",
"\\bWPARAM\\b",
"\\bchar\\b",
"\\bbool\\b",
"\\bshort\\b",
"\\bint\\b",
"\\blong\\b",
"\\bfloat\\b",
"\\bdouble\\b",
"\\bclock_t\\b",
"\\bFILE\\b",
"\\bsigned\\b",
"\\bunsigned\\b"	

],
	"keywords" : [ 
"\\bauto\\b",	
"\\bbreak\\b",	
"\\bcase\\b",	
"\\bconst\\b",	
"\\bcontinue\\b",	
"\\bdefault\\b",	
"\\bdo\\b",	
"\\belse\\b", 	
"\\benum\\b", 	
"\\bextern\\b", 	
"\\bfor\\b", 	
"\\bgoto\\b", 	
"\\bif\\b",	
"\\bregister\\b",	
"\\brestricted\\b", 	
"\\breturn\\b", 	
"\\bsizeof\\b", 	
"\\bstatic\\b",	
"\\bstruct\\b",	
"\\bswitch\\b", 	
"\\btypedef\\b", 	
"\\bunion\\b", 	
"\\bvolatile\\b", 	
"\\bwhile\\b",	
"\\binline\\b", 	
"\\b_inline\\b",	
"\\bnaked\\b",	
"\\brestrict\\b",                    	
"\\bthread\\b",	
"\\btypename\\b",	
"\\basm\\b",	
"\\bbased\\b",	
"\\bexcept\\b",	
"\\bstdcall\\b",	
"\\bcdecl\\b",	
"\\bfastcall\\b",	
"\\bdeclspec\\b",	
"\\bfinally\\b",	
"\\btry\\b",	
"\\bleave\\b", 	
"\\bwchar_t\\b",	
"\\bunaligned\\b",	
"\\braise\\b",	
"\\bnoop\\b",	
"\\bidentifier\\b", 	
"\\bforceinline\\b", 	
"\\bassume\\b",	
"\\binclude\\b",	
"\\bdefine\\b"	
]	
}